{
    "gulp": {
        "templates": [
            "Templates/*"
        ],
        "sass": [
            "Sass/**/*.scss"
        ]
    },
    "overrides": {
        "suitecommerce/Footer@1.0.1/Sass/_footer.scss": "Sass/_qs-footer.scss",
        "suitecommerce/Footer@1.0.1/Templates/footer.tpl": "Templates/qs_footer.tpl"
    }
}
