{
  "id": "ss-backinstock",
  "name": "SuiteSolution - BackInStock",
  "dependencies": [
    "mont-blanc-base"
  ],
  "modules": {
    "efficiencies/BackInStockNotification": "1.0.2",
    "efficiencies/BackInStockNotificationAdmin": "1.0.1",
    "efficiencies/DuplicateCustomerManagement": "1.0.1",
    "efficiencies/EFCore": "1.1.0"
  },
  "tasksConfig": {
    "javascript": [
      {
        "entryPoint": "SC.Shopping.Starter",
        "dependencies": [
          "BackInStockNotification"
        ]
      },
      {
        "entryPoint": "SC.MyAccount.Starter",
        "dependencies": [
          "BackInStockNotification",
          "BackInStockNotificationAdministrator"
        ]
      },
      {
        "entryPoint": "SC.Checkout.Starter",
        "dependencies": [

        ]
      }
    ],
    "ssp-libraries": {
      "dependencies": [
        "BackInStockNotification.Configuration",
        "BackInStockNotification"
      ]
    },
    "sass": {
      "applications": [
        {
          "name": "Shopping",
          "dependencies": [
            "BackInStockNotification"
          ]
        },
        {
          "name": "MyAccount",
          "dependencies": [
            "BackInStockNotificationAdmin"
          ]
        },
        {
          "name": "Checkout",
          "dependencies": [
          ]
        }
      ]
    },
    "backend-suitescript": {
      "amdConfig": {
        "paths": {
          "Backbone.Validation": "backbone-validation.server.custom"
        },
        "shim": {
          "Backbone.Validation": {
            "exports": "Backbone.Validation"
          }
        },
        "findNestedDependencies": true,
        "map": {
          "SC.Model": {
            "Application": "Application.Backend"
          },
          "Utils": {
            "Application": "Application.Backend"
          },
          "BackInStockNotification": {
            "Application": "Application.Backend"
          }
        }
      }
    }
  }
}
