{
  "id": "ss-customizations-diy",
  "name": "DIY - Mont Blanc",
  "dependencies": ["mont-blanc-base"],
  "modules": {
    "diy/ApplicationCustom": "dev",
    "diy/SitewideMessage": "dev",
    "diy/BuilderProgramEnrollmentRequest": "dev",
    "diy/Brand": "dev",
    "diy/BrandLanding": "dev",
    "diy/BrandListing": "dev",
    "diy/CustomItemDetails": "dev",
    "diy/CustomBaseSassStyles":"dev",
    "diy/CustomItemsKeyMapping":"dev",
    "diy/CustomItemViews" : "dev",
    "diy/CustomCart" : "dev",
    "diy/CustomProductList" : "dev",
    "diy/CustomOrderWizard" : "dev",
    "diy/CustomWizard" : "dev",
    "diy/CustomOrderWizardModuleAddress" : "dev",
    "diy/CustomOrderWizardModuleShipmethod" : "dev",
    "diy/CustomOrderWizardModulePaymentMethod" : "dev",
    "diy/CustomOrderWizardModuleCartSummary" : "dev",
    "diy/CustomOrderWizardModulePromocodeForm" : "dev",
    "diy/CustomOrderWizardModuleCartItems" : "dev",
    "diy/CustomGlobalViews" : "dev",
    "diy/CustomCreditCard" : "dev",
    "diy/CustomOrderWizardModuleSubmitButton" : "dev",
    "diy/CustomOrderWizardModuleConfirmation" : "dev",
    "diy/ItemDocumentation" : "dev",
    "diy/ItemVideo" : "dev",
    "diy/CustomLiveOrder" : "dev",
    "diy/CustomCheckoutApplication" : "dev",
    "diy/CustomOrderWizardModuleNotes" : "dev",
    "diy/RecommendedAccessories" : "dev",
    "diy/CustomMyAccountApplication" : "dev",
    "diy/CustomRecordViews" : "dev",
    "diy/CustomOverview" : "dev",
    "diy/CustomMenuTree" : "dev",
    "diy/CustomCase" : "dev",
    "diy/CustomListHeader" : "dev",
    "diy/CustomBalance" : "dev",
    "diy/CustomInvoice" : "dev",
    "diy/CustomAddress" : "dev",
    "diy/CustomLoginRegister": "dev",
    "diy/ShoppingApplicationFix": "dev",
    "diy/CustomProductReviews": "dev",
    "diy/CustomItemRelations": "dev",
    "diy/BrandSearch": "dev",
    "diy/CustomProfile": "dev",
    "diy/SCAGeneralConfiguration": "dev",
    "diy/CustomCMSAdapterFixes": "dev",
    "diy/SEOPageGenerator": "dev",
    "diy/CustomFacets": "dev",
    "diy/CustomErrorManagement": "dev"
  },
  "tasksConfig": {
      "javascript": [
          {
              "entryPoint": "SC.Shopping.Starter",
              "dependencies": [
                  "BrandLanding",
                  "ItemDocumentation",
                  "ItemVideo",
                  "BuilderProgramEnrollmentRequest",
                  "BrandListing",
                  "RecommendedAccessories",
                  "Brand",
                  "CustomItemViews.Cell.Actionable.View",
                  "CustomItemViews.Price.View",
                  "CustomCart.Summary.View",
                  "CustomCart.Detailed.View",
                  "BrandSearch",
                  "SEOPageGenerator",
                  "Facets.FacetedNavigationItemCategory.View.Context.Extended"
              ]
          },
          {
              "entryPoint": "SC.MyAccount.Starter",
              "dependencies": [
                  "BrandSearch",
                  "SEOPageGenerator"
              ]
          },
          {
              "entryPoint": "SC.Checkout.Starter",
              "dependencies": [
                  "CustomOrderWizardModuleNotes",
                  "CustomOrderWizard.Module.Shipmethod",
                  "CustomOrderWizard.Module.Address",
                  "CustomItemViews.Price.View",
                  "CustomItemViews.Cell.Navigable.View",
                  "BrandSearch",
                  "SEOPageGenerator",
                  "OrderWizard.Router.Extended"
              ]
          }
      ],
      "ssp-libraries": {
          "dependencies": [
            "Application.Events.Once",
            {"add": "SitewideMessage.Model", "after": "Profile.Model"},
            {"add": "Brand.Model", "after": "Profile.Model"},
            {"add": "BrandSearch", "after": "Profile.Model"},
            "ItemDocument.Model",
            "ItemVideo.Model",
            "RecommendedAccessories.Model",
            "LiveOrder.ShippingCalculation.Model",
            "Brand.Configuration",
            "SCAGeneralConfiguration"
          ]
      },
      "sass": {
          "applications": [
              {
                  "name": "Shopping",
                  "dependencies": [
                    "ItemDocumentation",
                    "ItemVideo",
                    "BuilderProgramEnrollmentRequest",
                    "BrandListing",
                    "RecommendedAccessories",
                    "BrandLanding",
                    "CustomItemRelations",
                    "BrandSearch"
                  ]
              },
              {
                  "name": "MyAccount",
                  "dependencies": [
                    "BrandSearch",
                    "CustomMyAccountApplication"
                  ]
              },
              {
                  "name": "Checkout",
                  "dependencies": [
                    "CustomOrderWizardModuleNotes",
                    "CustomCheckoutApplication",
                    "BrandSearch",
                    {
                        "module": "CustomLoginRegister",
                        "include": [
                            "_login.register.forgot.password-extended.scss"
                        ]
                    }
                  ]
              }
          ]
      }
  }
}
