{
  "id": "ss-quantitypricing-r1.0.0",
  "name": "QuantityPricing",
  "dependencies": ["mont-blanc-base"],
  "version": "2.0",
  "buildToolsVersion": "1.1.0",
  "folders": {
    "modules": "Modules",
    "distribution": "bin/LocalDistribution",
    "deploy": "bin/DeployDistribution",
    "release": "bin/ReleaseDistribution"
  },
  "modules": {
    "efficiencies/QuantityPricing": "1.0.0"
  },
  "tasksConfig": {
    "javascript": [
      {
        "entryPoint": "SC.Shopping.Starter",
        "dependencies": [
          "QuantityPricing"
        ]
      }
    ],
    "sass": {
      "applications": [
        {
          "name": "Shopping",
          "dependencies": [
            "QuantityPricing"
          ]
        }
      ]
    }
  }
}