{
  "id": "ss-theme-diy",
  "name": "DIY - Mont Blanc",
  "dependencies": ["mont-blanc-base"],
  "modules": {
    "diy/CustomSCHeader": "dev",
    "diy/CustomSCA": "dev",
    "diy/CustomHome": "dev",
    "diy/Newsletter.CustomIcon": "dev",
    "diy/CustomSiteSearch": "dev",
    "diy/CustomPSGlobalViews": "dev",
    "diy/CustomPSCategories": "dev",
    "diy/CustomPSCategories.Facets": "dev",
    "diy/CustomFacets": "dev",
    "diy/CustomGlobalViews": "dev",
    "diy/CustomjQueryExtras": "dev",
    "diy/CustomUtilities": "dev",
    "diy/SSPCustom": "dev",
    "diy/Theme_BaseSassStyles": "dev",
    "diy/Theme_Cart": "dev",
    "diy/Theme_GlobalViews": "dev",
    "diy/Theme_Facets": "dev",
    "diy/Theme_Footer": "dev",
    "diy/CustomHeader": "dev",
    "diy/Theme_ItemDetails": "dev",
    "diy/Theme_SiteSearch": "dev",
    "diy/Theme_ShoppingApplication": "dev",
    "diy/Theme_FontLoad": "dev",
    "diy/CustomRecentlyViewedItems": "dev"
  },
  "tasksConfig": {
    "javascript": [
      {
        "entryPoint": "SC.Shopping.Starter",
        "dependencies": [
          "Newsletter.CustomIcon",
          "CustomHome",
          "CustomHeader"
        ]
      },
      {
        "entryPoint": "SC.MyAccount.Starter",
        "dependencies": [
          "Newsletter.CustomIcon",
          "CustomHeader"
        ]
      },
      {
        "entryPoint": "SC.Checkout.Starter",
        "dependencies": [
          "Newsletter.CustomIcon",
          "CustomHeader"
        ]
      }
    ],
    "sass": {
      "applications": [
        {
          "name": "Shopping",
          "dependencies": [
            "Theme_ShoppingApplication",
            "Theme_Cart",
            "Theme_GlobalViews",
            {
              "module": "Theme_BaseSassStyles",
              "include": [
                "qs-reset"
              ]
            },
            "Theme_Facets",
            {
              "module": "CustomHeader",
              "include": [
                "qs-header",
                "qs-header-logo",
                "qs-header-sidebar"
              ]
            },
            "Theme_ItemDetails",
            "Theme_SiteSearch",
            "Newsletter.CustomIcon",
            "CustomPSCategories",
            "CustomFacets",
            "CustomGlobalViews",
            "CustomHome"
          ]
        },
        {
          "name": "MyAccount",
          "dependencies": [
            {
              "module": "Theme_BaseSassStyles",
              "include": [
                "qs-reset"
              ]
            },
            {
              "module": "CustomHeader",
              "include": [
                "qs-header",
                "qs-header-logo",
                "qs-header-sidebar"
              ]
            },
            "Theme_SiteSearch",
            "Newsletter.CustomIcon"
          ]
        },
        {
          "name": "Checkout",
          "dependencies": [
            {
              "module": "Theme_BaseSassStyles",
              "include": [
                "qs-reset"
              ]
            },
            {
              "module": "CustomHeader",
              "include": [
                "qs-header",
                "qs-header-logo",
                "qs-header-sidebar"
              ]
            },
            "Theme_SiteSearch"
          ]
        }
      ]
    },
    "ssp-libraries": {
      "dependencies": [
        "Fonts.Configuration",
        "CustomHome"
      ]
    }
  }
}




