{
    "gulp": {
        "javascript": [
            "JavaScript/*"
        ],
        "images": [
            "Images/*"
        ],
        "templates": [
            "Templates/*"
        ],
        "sass": [
            "Sass/**/*.scss"
        ]
    },
    "overrides": {
        "suitecommerce/Header@1.1.0/Sass/_header.scss": "Sass/_header.scss",
        "suitecommerce/Header@1.1.0/Sass/_header-menu.scss": "Sass/_qs-header-menu.scss",
        "suitecommerce/Header@1.1.0/Templates/header.tpl": "Templates/qs_header.tpl",
        "suitecommerce/Header@1.1.0/Templates/header_menu.tpl": "Templates/qs_header_menu.tpl"
    }
}
