{
    "gulp": {
        "templates": [
            "Templates/*"
        ],
        "sass": [
            "Sass/**/*.scss"
        ]
    },
    "overrides": {
        "suitecommerce/Home@2.0.3/Templates/home.tpl": "Templates/qs_traleika_home.tpl"
    }
}
