{
    "gulp": {
        "templates": [
            "Templates/*"
        ],
        "sass": [
            "Sass/**/*.scss"
        ]
    },
    "overrides": {
        "suitecommerce/Header@1.1.0/Templates/header.tpl": "Templates/qs-traleika-header.tpl"
    }
}
